simvision.vcd
$comment
TOOL:	simvision(64)	15.20-s086
$end

$date
    Jun 18, 2026 04:33:17
$end

$timescale
    1ps
$end


$scope module tb_axi_soc $end

$scope module dut $end
$var integer 32 ! M_AXI_ARADDR [31:0] $end
$var wire 1 " M_AXI_ARREADY $end
$var wire 1 # M_AXI_ARVALID $end
$var integer 32 $ M_AXI_AWADDR [31:0] $end
$var wire 1 % M_AXI_AWREADY $end
$var wire 1 & M_AXI_AWVALID $end
$var wire 1 ' M_AXI_BREADY $end
$var wire 2 ( M_AXI_BRESP [1:0] $end
$var wire 1 ) M_AXI_BVALID $end
$var integer 32 * M_AXI_RDATA [31:0] $end
$var wire 1 + M_AXI_RREADY $end
$var wire 2 , M_AXI_RRESP [1:0] $end
$var wire 1 - M_AXI_RVALID $end
$var integer 32 . M_AXI_WDATA [31:0] $end
$var wire 1 / M_AXI_WREADY $end
$var wire 4 0 M_AXI_WSTRB [3:0] $end
$var wire 1 1 M_AXI_WVALID $end
$var wire 1 2 br_taken_dbg $end
$var wire 1 3 clk $end
$var wire 1 4 data_access $end
$var integer 32 5 epc_debug [31:0] $end
$var integer 32 6 gpio_araddr [31:0] $end
$var wire 1 7 gpio_arready $end
$var wire 1 8 gpio_arvalid $end
$var integer 32 9 gpio_awaddr [31:0] $end
$var wire 1 : gpio_awready $end
$var wire 1 ; gpio_awvalid $end
$var wire 1 < gpio_bready $end
$var wire 2 = gpio_bresp [1:0] $end
$var wire 1 > gpio_bvalid $end
$var integer 32 ? gpio_in [31:0] $end
$var integer 32 @ gpio_out [31:0] $end
$var integer 32 A gpio_rdata [31:0] $end
$var wire 1 B gpio_rready $end
$var wire 2 C gpio_rresp [1:0] $end
$var wire 1 D gpio_rvalid $end
$var integer 32 E gpio_wdata [31:0] $end
$var wire 1 F gpio_wready $end
$var wire 4 G gpio_wstrb [3:0] $end
$var wire 1 H gpio_wvalid $end
$var integer 32 I inst_debug [31:0] $end
$var integer 32 J mem_addr [31:0] $end
$var integer 32 K mem_rdata [31:0] $end
$var wire 1 L mem_re $end
$var wire 1 M mem_ready $end
$var wire 1 N mem_valid $end
$var integer 32 O mem_wdata [31:0] $end
$var wire 1 P mem_we $end
$var wire 1 Q mem_write $end
$var wire 4 R mem_wstrb [3:0] $end
$var integer 32 S pc_debug [31:0] $end
$var integer 32 T proc_imem_addr [31:0] $end
$var integer 32 U proc_imem_rdata [31:0] $end
$var integer 32 V proc_mem_addr [31:0] $end
$var integer 32 W proc_mem_rdata [31:0] $end
$var integer 32 X proc_mem_wdata [31:0] $end
$var integer 32 Y ram_araddr [31:0] $end
$var wire 1 Z ram_arready $end
$var wire 1 [ ram_arvalid $end
$var integer 32 \ ram_awaddr [31:0] $end
$var wire 1 ] ram_awready $end
$var wire 1 ^ ram_awvalid $end
$var wire 1 _ ram_bready $end
$var wire 2 ` ram_bresp [1:0] $end
$var wire 1 a ram_bvalid $end
$var integer 32 b ram_rdata [31:0] $end
$var wire 1 c ram_rready $end
$var wire 2 d ram_rresp [1:0] $end
$var wire 1 e ram_rvalid $end
$var integer 32 f ram_wdata [31:0] $end
$var wire 1 g ram_wready $end
$var wire 4 h ram_wstrb [3:0] $end
$var wire 1 i ram_wvalid $end
$var wire 5 j rf_waddr [4:0] $end
$var integer 32 k rf_wdata [31:0] $end
$var wire 1 l rf_we $end
$var wire 1 m rst $end
$var integer 32 n spi_araddr [31:0] $end
$var wire 1 o spi_arready $end
$var wire 1 p spi_arvalid $end
$var integer 32 q spi_awaddr [31:0] $end
$var wire 1 r spi_awready $end
$var wire 1 s spi_awvalid $end
$var wire 1 t spi_bready $end
$var wire 2 u spi_bresp [1:0] $end
$var wire 1 v spi_bvalid $end
$var wire 1 w spi_cs $end
$var wire 1 x spi_miso $end
$var wire 1 y spi_mosi $end
$var integer 32 z spi_rdata [31:0] $end
$var wire 1 { spi_rready $end
$var wire 2 | spi_rresp [1:0] $end
$var wire 1 } spi_rvalid $end
$var wire 1 ~ spi_sclk $end
$var integer 32 !! spi_wdata [31:0] $end
$var wire 1 "! spi_wready $end
$var wire 4 #! spi_wstrb [3:0] $end
$var wire 1 $! spi_wvalid $end
$var wire 1 %! timer_interrupt $end
$var wire 1 &! timer_irq_dbg $end
$var wire 1 '! trap_taken $end
$upscope $end

$upscope $end

$enddefinitions $end
#0
$dumpvars
b0 !
x"
0#
b0 $
x%
0&
0'
bx (
x)
bx *
0+
bx ,
x-
b0 .
x/
b0 0
01
x2
03
x4
bx 5
b0 6
x7
08
b0 9
x:
0;
0<
bx =
x>
b10100101101001010101101001011010 ?
bx @
bx A
0B
bx C
xD
b0 E
xF
b0 G
0H
bx I
bx J
b0 K
xL
0M
1N
bx O
xP
xQ
bx R
bx S
bz T
b0 U
bx V
bx W
bx X
b0 Y
xZ
0[
b0 \
x]
0^
0_
bx `
xa
bx b
0c
bx d
xe
b0 f
xg
b0 h
0i
bx j
bx k
xl
1m
b0 n
xo
0p
b0 q
xr
0s
0t
bx u
xv
xw
0x
xy
bx z
0{
bx |
x}
x~
b0 !!
x"!
b0 #!
0$!
0%!
0&!
x'!
$end
#5000
0"
0%
b0 R
b0 S
07
b0 V
b0 W
b0 ,
0:
b0 X
b0 =
0Z
0]
b0 (
0-
0>
b0 `
0a
b0 @
b0 b
b0 d
0/
b0 A
0e
0g
b0 C
b0 j
b100 k
0)
02
0D
0l
0F
0o
13
b10011 I
0r
b0 u
bz J
0v
1w
b0 *
04
0L
0y
b0 z
b0 O
b0 |
0}
b0 5
0P
0~
0"!
0Q
0'!
#10000
03
#15000
13
#20000
03
#25000
13
#30000
03
0m
#35000
bz !
bz 6
1"
bz Y
13
1#
b0 k
bz n
1l
#40000
03
#45000
13
1+
b10 ,
0l
0#
b0x00xx I
b11011110101011011011111011101111 *
#50000
03
#55000
13
#60000
03
#65000
13
#70000
03
#75000
13
#80000
03
#85000
13
#90000
03
#95000
13
#100000
03
#105000
13
#110000
03
#115000
13
#120000
03
#125000
13
#130000
03
#135000
13
#140000
03
#145000
13
#150000
03
#155000
13
#160000
03
#165000
13
#170000
03
#175000
13
#180000
03
#185000
13
#190000
03
#195000
13
#200000
03
#205000
13
#210000
03
#215000
13
#220000
03
#225000
13
#230000
03
#235000
13
#240000
03
#245000
13
#250000
03
#255000
13
#260000
03
#265000
13
#270000
03
#275000
13
#280000
03
#285000
13
#290000
03
#295000
13
#300000
03
#305000
13
#310000
03
#315000
13
#320000
03
#325000
13
#330000
03
#335000
13
#340000
03
#345000
13
#350000
03
#355000
13
#360000
03
#365000
13
#370000
03
#375000
13
#380000
03
#385000
13
#390000
03
#395000
13
#400000
03
#405000
13
#410000
03
#415000
13
#420000
03
#425000
13
#430000
03
#435000
13
#440000
03
#445000
13
#450000
03
#455000
13
#460000
03
#465000
13
#470000
03
#475000
13
#480000
03
#485000
13
#490000
03
#495000
13
#500000
03
#505000
13
#510000
03
#515000
13
#520000
03
#525000
13
#530000
03
#535000
13
#540000
03
#545000
13
#550000
03
#555000
13
#560000
03
#565000
13
#570000
03
#575000
13
#580000
03
#585000
13
#590000
03
#595000
13
#600000
03
#605000
13
#610000
03
#615000
13
#620000
03
#625000
13
#630000
03
#635000
13
#640000
03
#645000
13
#650000
03
#655000
13
#660000
03
#665000
13
#670000
03
#675000
13
#680000
03
#685000
13
#690000
03
#695000
13
#700000
03
#705000
13
#710000
03
#715000
13
#720000
03
#725000
13
#730000
03
#735000
13
#740000
03
#745000
13
#750000
03
#755000
13
#760000
03
#765000
13
#770000
03
#775000
13
#780000
03
#785000
13
#790000
03
#795000
13
#800000
03
#805000
13
#810000
03
#815000
13
#820000
03
#825000
13
#830000
03
#835000
13
#840000
03
#845000
13
#850000
03
#855000
13
#860000
03
#865000
13
#870000
03
#875000
13
#880000
03
#885000
13
#890000
03
#895000
13
#900000
03
#905000
13
#910000
03
#915000
13
#920000
03
#925000
13
#930000
03
#935000
13
#940000
03
#945000
13
#950000
03
#955000
13
#960000
03
#965000
13
#970000
03
#975000
13
#980000
03
#985000
13
#990000
03
#995000
13
#1000000
03
#1005000
13
#1010000
03
#1015000
13
#1020000
03
#1025000
13
#1030000
03
#1035000
13
1&!
#1040000
03
#1045000
13
0&!
#1050000
03
#1055000
13
#1060000
03
#1065000
13
#1070000
03
#1075000
13
#1080000
03
#1085000
13
#1090000
03
#1095000
13
#1100000
03
#1105000
13
#1110000
03
#1115000
13
#1120000
03
#1125000
13
#1130000
03
#1135000
13
#1140000
03
#1145000
13
#1150000
03
#1155000
13
#1160000
03
#1165000
13
#1170000
03
#1175000
13
#1180000
03
#1185000
13
#1190000
03
#1195000
13
#1200000
03
#1205000
13
#1210000
03
#1215000
13
#1220000
03
#1225000
13
#1230000
03
#1235000
13
#1240000
03
#1245000
13
#1250000
03
#1255000
13
#1260000
03
#1265000
13
#1270000
03
#1275000
13
#1280000
03
#1285000
13
#1290000
03
#1295000
13
#1300000
03
#1305000
13
#1310000
03
#1315000
13
#1320000
03
#1325000
13
#1330000
03
#1335000
13
#1340000
03
#1345000
13
#1350000
03
#1355000
13
#1360000
03
#1365000
13
#1370000
03
#1375000
13
#1380000
03
#1385000
13
#1390000
03
#1395000
13
#1400000
03
#1405000
13
#1410000
03
#1415000
13
#1420000
03
#1425000
13
#1430000
03
#1435000
13
#1440000
03
#1445000
13
#1450000
03
#1455000
13
#1460000
03
#1465000
13
#1470000
03
#1475000
13
#1480000
03
#1485000
13
#1490000
03
#1495000
13
#1500000
03
#1505000
13
#1510000
03
#1515000
13
#1520000
03
#1525000
13
#1530000
03
#1535000
13
#1540000
03
#1545000
13
#1550000
03
#1555000
13
#1560000
03
#1565000
13
#1570000
03
#1575000
13
#1580000
03
#1585000
13
#1590000
03
#1595000
13
#1600000
03
#1605000
13
#1610000
03
#1615000
13
#1620000
03
#1625000
13
#1630000
03
#1635000
13
#1640000
03
#1645000
13
#1650000
03
#1655000
13
#1660000
03
#1665000
13
#1670000
03
#1675000
13
#1680000
03
#1685000
13
#1690000
03
#1695000
13
#1700000
03
#1705000
13
#1710000
03
#1715000
13
#1720000
03
#1725000
13
#1730000
03
#1735000
13
#1740000
03
#1745000
13
#1750000
03
#1755000
13
#1760000
03
#1765000
13
#1770000
03
#1775000
13
#1780000
03
#1785000
13
#1790000
03
#1795000
13
#1800000
03
#1805000
13
#1810000
03
#1815000
13
#1820000
03
#1825000
13
#1830000
03
#1835000
13
#1840000
03
#1845000
13
#1850000
03
#1855000
13
#1860000
03
#1865000
13
#1870000
03
#1875000
13
#1880000
03
#1885000
13
#1890000
03
#1895000
13
#1900000
03
#1905000
13
#1910000
03
#1915000
13
#1920000
03
#1925000
13
#1930000
03
#1935000
13
#1940000
03
#1945000
13
#1950000
03
#1955000
13
#1960000
03
#1965000
13
#1970000
03
#1975000
13
#1980000
03
#1985000
13
#1990000
03
#1995000
13
#2000000
03
#2005000
13
#2010000
03
#2015000
13
#2020000
03
#2025000
13
#2030000
03
#2035000
13
#2040000
03
#2045000
13
1&!
#2050000
03
#2055000
13
0&!
